%YAML 1.1
%TAG !u! tag:unity3d.com,2011:
--- !u!1045 &1
EditorBuildSettings:
  m_ObjectHideFlags: 0
  serializedVersion: 2
  m_Scenes:
  - enabled: 1
    path: Assets/$Main/$Game/Scenes/LoadingScene.unity
    guid: 229065485eb4562429541d9ef116efe3
  - enabled: 1
    path: Assets/$Main/$Game/Scenes/MainMenu.unity
    guid: 4e2856f572778304da0a5b8e06cc73a2
  - enabled: 1
    path: Assets/$Main/$Game/Scenes/Gameplay.unity
    guid: f2182e2c94a3b6c48abd3885b4764569
  m_configObjects: {}
